{
	"info": {
		"_postman_id": "2931fdb2-346d-45fd-987b-7863ed7da5fa",
		"name": "Assign",
		"schema": "https://schema.getpostman.com/json/collection/v2.1.0/collection.json",
		"_exporter_id": "27047238"
	},
	"item": [
		{
			"name": "Get Book Details",
			"event": [
				{
					"listen": "test",
					"script": {
						"exec": [
							"const response = pm.response.json();\r",
							"\r",
							"const expectedProperty1 = \"The Russian\";\r",
							"const expectedProperty2 = \"fiction\";\r",
							"\r",
							"pm.test(\"Status code is 200\", ()=> {\r",
							"    pm.response.to.have.status(200);\r",
							"});\r",
							"\r",
							"pm.test(\"response contains expected data\", ()=>{\r",
							"        if (pm.expect(response[0].name).to.eql(expectedProperty1)\r",
							"        && pm.expect(response[0].type).to.eql(expectedProperty2)\r",
							"        \r",
							"        ){\r",
							"            console.log(\"properties are as expected\")\r",
							"        }\r",
							"        else {\r",
							"    console.error(\"Properties do not match the expected values.\");\r",
							"}\r",
							"\r",
							"    \r",
							"})\r",
							""
						],
						"type": "text/javascript"
					}
				}
			],
			"request": {
				"method": "GET",
				"header": [],
				"url": {
					"raw": "https://simple-books-api.glitch.me/books",
					"protocol": "https",
					"host": [
						"simple-books-api",
						"glitch",
						"me"
					],
					"path": [
						"books"
					]
				}
			},
			"response": []
		}
	]
}